…
# Read in the data with R


```r
library(dplyr)
fi <-'./csv/pol4455-particle_sizer.csv'
df <- read.csv(fi, header=TRUE, as.is=TRUE)
df <- as_tibble(df)
df
```

```
# A tibble: 1,083 x 26
   Frame Label      X     Y  Area Area.Conv..Hull Peri. Peri..Conv..Hull
   <int> <int>  <dbl> <dbl> <dbl>           <dbl> <dbl>            <dbl>
 1     1     1   78.4  17.5 1088.           1118.  115.             116.
 2     1     2  994.   22.1  943.            957.  105.             107.
 3     1     3 1074.   27.0 1361.           1398.  127.             129.
 4     1     4  640.   26.1 1069.           1097.  113.             114.
 5     1     5 1162.   26.1 1239.           1267.  121.             123.
 6     1     6 1245.   28.4 1316.           1347.  125.             127.
 7     1     7  464.   30.0 1505.           1529.  133.             135.
 8     1     8  384.   29.5 1284.           1309.  124.             125.
 9     1     9 1331.   29.7 1344.           1361.  124.             128.
10     1    10  559.   33.7 1321.           1365.  130.             130.
# … with 1,073 more rows, and 18 more variables: Feret <dbl>,
#   Min..Feret <dbl>, Maximum.inscriped.circle.diameter <int>,
#   Area.equivalent.circle.diameter <dbl>, Long.Side.Length.MBR <dbl>,
#   Short.Side.Length.MBR <dbl>, Aspect.Ratio <dbl>, Area.Peri. <dbl>,
#   Circ. <dbl>, Elong. <dbl>, Convexity <dbl>, Solidity <dbl>,
#   Num..of.Holes <int>, Thinnes.Rt. <dbl>, Contour.Temp. <dbl>,
#   Orientation <dbl>, Fract..Dim. <dbl>, Fract..Dim..Goodness <dbl>
```
…
```
   Min. 1st Qu.  Median    Mean 3rd Qu.    Max. 
 0.8354  1.0453  1.0537  1.0518  1.0629  1.1054 
```

```r
particles <- as_tibble(data.frame(lab=df$Label,
                                  ecd=df$Area.equivalent.circle.diameter,
                                  ar=df$Aspect.Ratio, circ=df$Circ., elong=df$Elong.,
                                  conv=df$Convexity))
particles
```

```
# A tibble: 1,083 x 6
     lab   ecd    ar  circ elong  conv
   <int> <dbl> <dbl> <dbl> <dbl> <dbl>
 1     1  37.2  1.31  12.1 0.464     1
 2     2  34.6  1     11.6 0.197     1
 3     3  41.6  1.04  11.9 0.133     1
 4     4  36.9  1.09  11.9 0.304     1
 5     5  39.7  1     11.8 0.221     1
 6     6  40.9  1.04  11.8 0.208     1
 7     7  43.8  1.04  11.7 0.2       1
 8     8  40.4  1     11.9 0.167     1
 9     9  41.4  1     11.5 0.112     1
10    10  41.0  1.14  12.8 0.405     1
# … with 1,073 more rows
```
…
