…
# Read in the data with R


```r
fi <-'./csv/pol4455-particle_sizer.csv'
df <- read.csv(fi, header=TRUE, as.is=TRUE)
df <- as_tibble(df)
df
```

```
# A tibble: 1,083 x 26
   Frame Label      X     Y  Area Area.Conv..Hull Peri. Peri..Conv..Hull
   <int> <int>  <dbl> <dbl> <dbl>           <dbl> <dbl>            <dbl>
 1     1     1   78.4  17.5 1088.           1118.  115.             116.
 2     1     2  994.   22.1  943.            957.  105.             107.
 3     1     3 1074.   27.0 1361.           1398.  127.             129.
 4     1     4  640.   26.1 1069.           1097.  113.             114.
 5     1     5 1162.   26.1 1239.           1267.  121.             123.
 6     1     6 1245.   28.4 1316.           1347.  125.             127.
 7     1     7  464.   30.0 1505.           1529.  133.             135.
 8     1     8  384.   29.5 1284.           1309.  124.             125.
 9     1     9 1331.   29.7 1344.           1361.  124.             128.
10     1    10  559.   33.7 1321.           1365.  130.             130.
# … with 1,073 more rows, and 18 more variables: Feret <dbl>,
#   Min..Feret <dbl>, Maximum.inscriped.circle.diameter <int>,
#   Area.equivalent.circle.diameter <dbl>, Long.Side.Length.MBR <dbl>,
#   Short.Side.Length.MBR <dbl>, Aspect.Ratio <dbl>, Area.Peri. <dbl>,
#   Circ. <dbl>, Elong. <dbl>, Convexity <dbl>, Solidity <dbl>,
#   Num..of.Holes <int>, Thinnes.Rt. <dbl>, Contour.Temp. <dbl>,
#   Orientation <dbl>, Fract..Dim. <dbl>, Fract..Dim..Goodness <dbl>
```
…
